<?xml version="1.0" encoding="UTF-8"?>
<svg width="28px" height="28px" viewBox="0 0 28 28" version="1.1" xmlns="http://www.w3.org/2000/svg" xmlns:xlink="http://www.w3.org/1999/xlink">
    <!-- Generator: Sketch 58 (84663) - https://sketch.com -->
    <title>Oval2</title>
    <desc>Created with Sketch.</desc>
    <g id="Page-1" stroke="none" stroke-width="1" fill="none" fill-rule="evenodd">
        <g id="Sense_Main-3" transform="translate(-693.000000, -744.000000)" fill-rule="nonzero" stroke="#D20C1B" stroke-width="0.5">
            <g id="Hero">
                <g id="ElementeFundal">
                    <circle id="Oval2" cx="707" cy="758" r="13"></circle>
                </g>
            </g>
        </g>
    </g>
</svg>